^D:\DROPBOX\UNI\MASTERS\PROJECT\MRES_CODE\PAPER_CODE\BUTTERFLY-COUNTING\BFC.CPP
C:\USERS\PATRI\SOURCE\REPOS\PROJECT1\PROJECT1\DEBUG\VC141.PDB
C:\USERS\PATRI\SOURCE\REPOS\PROJECT1\PROJECT1\DEBUG\VC141.IDB
C:\USERS\PATRI\SOURCE\REPOS\PROJECT1\PROJECT1\DEBUG\BFC.OBJ
