^D:\DROPBOX\UNI\MASTERS\PROJECT\MRES_CODE\PAPER_CODE\BUTTERFLY-COUNTING\BFC.CPP
C:\PROGRAM FILES (X86)\MICROSOFT VISUAL STUDIO\2017\COMMUNITY\VC\TOOLS\MSVC\14.16.27023\BIN\HOSTX86\X86\1033\CLUI.DLL
C:\WINDOWS\GLOBALIZATION\SORTING\SORTDEFAULT.NLS
C:\WINDOWS\SYSTEM32\TZRES.DLL
C:\PROGRAM FILES (X86)\MICROSOFT VISUAL STUDIO\2017\COMMUNITY\VC\TOOLS\MSVC\14.16.27023\INCLUDE\IOSTREAM
C:\PROGRAM FILES (X86)\MICROSOFT VISUAL STUDIO\2017\COMMUNITY\VC\TOOLS\MSVC\14.16.27023\INCLUDE\ISTREAM
C:\PROGRAM FILES (X86)\MICROSOFT VISUAL STUDIO\2017\COMMUNITY\VC\TOOLS\MSVC\14.16.27023\INCLUDE\OSTREAM
C:\PROGRAM FILES (X86)\MICROSOFT VISUAL STUDIO\2017\COMMUNITY\VC\TOOLS\MSVC\14.16.27023\INCLUDE\IOS
C:\PROGRAM FILES (X86)\MICROSOFT VISUAL STUDIO\2017\COMMUNITY\VC\TOOLS\MSVC\14.16.27023\INCLUDE\XLOCNUM
C:\PROGRAM FILES (X86)\MICROSOFT VISUAL STUDIO\2017\COMMUNITY\VC\TOOLS\MSVC\14.16.27023\INCLUDE\CLIMITS
C:\PROGRAM FILES (X86)\MICROSOFT VISUAL STUDIO\2017\COMMUNITY\VC\TOOLS\MSVC\14.16.27023\INCLUDE\YVALS.H
C:\PROGRAM FILES (X86)\MICROSOFT VISUAL STUDIO\2017\COMMUNITY\VC\TOOLS\MSVC\14.16.27023\INCLUDE\YVALS_CORE.H
C:\PROGRAM FILES (X86)\MICROSOFT VISUAL STUDIO\2017\COMMUNITY\VC\TOOLS\MSVC\14.16.27023\INCLUDE\XKEYCHECK.H
C:\PROGRAM FILES (X86)\MICROSOFT VISUAL STUDIO\2017\COMMUNITY\VC\TOOLS\MSVC\14.16.27023\INCLUDE\CRTDEFS.H
C:\PROGRAM FILES (X86)\MICROSOFT VISUAL STUDIO\2017\COMMUNITY\VC\TOOLS\MSVC\14.16.27023\INCLUDE\VCRUNTIME.H
C:\PROGRAM FILES (X86)\MICROSOFT VISUAL STUDIO\2017\COMMUNITY\VC\TOOLS\MSVC\14.16.27023\INCLUDE\SAL.H
C:\PROGRAM FILES (X86)\MICROSOFT VISUAL STUDIO\2017\COMMUNITY\VC\TOOLS\MSVC\14.16.27023\INCLUDE\CONCURRENCYSAL.H
C:\PROGRAM FILES (X86)\MICROSOFT VISUAL STUDIO\2017\COMMUNITY\VC\TOOLS\MSVC\14.16.27023\INCLUDE\VADEFS.H
C:\PROGRAM FILES (X86)\WINDOWS KITS\10\INCLUDE\10.0.17763.0\UCRT\CORECRT.H
C:\PROGRAM FILES (X86)\WINDOWS KITS\10\INCLUDE\10.0.17763.0\UCRT\CRTDBG.H
C:\PROGRAM FILES (X86)\MICROSOFT VISUAL STUDIO\2017\COMMUNITY\VC\TOOLS\MSVC\14.16.27023\INCLUDE\VCRUNTIME_NEW_DEBUG.H
C:\PROGRAM FILES (X86)\MICROSOFT VISUAL STUDIO\2017\COMMUNITY\VC\TOOLS\MSVC\14.16.27023\INCLUDE\VCRUNTIME_NEW.H
C:\PROGRAM FILES (X86)\MICROSOFT VISUAL STUDIO\2017\COMMUNITY\VC\TOOLS\MSVC\14.16.27023\INCLUDE\USE_ANSI.H
C:\PROGRAM FILES (X86)\MICROSOFT VISUAL STUDIO\2017\COMMUNITY\VC\TOOLS\MSVC\14.16.27023\INCLUDE\LIMITS.H
C:\PROGRAM FILES (X86)\MICROSOFT VISUAL STUDIO\2017\COMMUNITY\VC\TOOLS\MSVC\14.16.27023\INCLUDE\CMATH
C:\PROGRAM FILES (X86)\MICROSOFT VISUAL STUDIO\2017\COMMUNITY\VC\TOOLS\MSVC\14.16.27023\INCLUDE\CSTDLIB
C:\PROGRAM FILES (X86)\WINDOWS KITS\10\INCLUDE\10.0.17763.0\UCRT\STDLIB.H
C:\PROGRAM FILES (X86)\WINDOWS KITS\10\INCLUDE\10.0.17763.0\UCRT\CORECRT_MALLOC.H
C:\PROGRAM FILES (X86)\WINDOWS KITS\10\INCLUDE\10.0.17763.0\UCRT\CORECRT_SEARCH.H
C:\PROGRAM FILES (X86)\WINDOWS KITS\10\INCLUDE\10.0.17763.0\UCRT\STDDEF.H
C:\PROGRAM FILES (X86)\WINDOWS KITS\10\INCLUDE\10.0.17763.0\UCRT\CORECRT_WSTDLIB.H
C:\PROGRAM FILES (X86)\WINDOWS KITS\10\INCLUDE\10.0.17763.0\UCRT\MATH.H
C:\PROGRAM FILES (X86)\WINDOWS KITS\10\INCLUDE\10.0.17763.0\UCRT\CORECRT_MATH.H
C:\PROGRAM FILES (X86)\MICROSOFT VISUAL STUDIO\2017\COMMUNITY\VC\TOOLS\MSVC\14.16.27023\INCLUDE\XTGMATH.H
C:\PROGRAM FILES (X86)\MICROSOFT VISUAL STUDIO\2017\COMMUNITY\VC\TOOLS\MSVC\14.16.27023\INCLUDE\XTR1COMMON
C:\PROGRAM FILES (X86)\MICROSOFT VISUAL STUDIO\2017\COMMUNITY\VC\TOOLS\MSVC\14.16.27023\INCLUDE\CSTDIO
C:\PROGRAM FILES (X86)\WINDOWS KITS\10\INCLUDE\10.0.17763.0\UCRT\STDIO.H
C:\PROGRAM FILES (X86)\WINDOWS KITS\10\INCLUDE\10.0.17763.0\UCRT\CORECRT_WSTDIO.H
C:\PROGRAM FILES (X86)\WINDOWS KITS\10\INCLUDE\10.0.17763.0\UCRT\CORECRT_STDIO_CONFIG.H
C:\PROGRAM FILES (X86)\MICROSOFT VISUAL STUDIO\2017\COMMUNITY\VC\TOOLS\MSVC\14.16.27023\INCLUDE\STREAMBUF
C:\PROGRAM FILES (X86)\MICROSOFT VISUAL STUDIO\2017\COMMUNITY\VC\TOOLS\MSVC\14.16.27023\INCLUDE\XIOSBASE
C:\PROGRAM FILES (X86)\MICROSOFT VISUAL STUDIO\2017\COMMUNITY\VC\TOOLS\MSVC\14.16.27023\INCLUDE\XLOCALE
C:\PROGRAM FILES (X86)\MICROSOFT VISUAL STUDIO\2017\COMMUNITY\VC\TOOLS\MSVC\14.16.27023\INCLUDE\CSTRING
C:\PROGRAM FILES (X86)\WINDOWS KITS\10\INCLUDE\10.0.17763.0\UCRT\STRING.H
C:\PROGRAM FILES (X86)\WINDOWS KITS\10\INCLUDE\10.0.17763.0\UCRT\CORECRT_MEMORY.H
C:\PROGRAM FILES (X86)\WINDOWS KITS\10\INCLUDE\10.0.17763.0\UCRT\CORECRT_MEMCPY_S.H
C:\PROGRAM FILES (X86)\WINDOWS KITS\10\INCLUDE\10.0.17763.0\UCRT\ERRNO.H
C:\PROGRAM FILES (X86)\MICROSOFT VISUAL STUDIO\2017\COMMUNITY\VC\TOOLS\MSVC\14.16.27023\INCLUDE\VCRUNTIME_STRING.H
C:\PROGRAM FILES (X86)\WINDOWS KITS\10\INCLUDE\10.0.17763.0\UCRT\CORECRT_WSTRING.H
C:\PROGRAM FILES (X86)\MICROSOFT VISUAL STUDIO\2017\COMMUNITY\VC\TOOLS\MSVC\14.16.27023\INCLUDE\STDEXCEPT
C:\PROGRAM FILES (X86)\MICROSOFT VISUAL STUDIO\2017\COMMUNITY\VC\TOOLS\MSVC\14.16.27023\INCLUDE\EXCEPTION
C:\PROGRAM FILES (X86)\MICROSOFT VISUAL STUDIO\2017\COMMUNITY\VC\TOOLS\MSVC\14.16.27023\INCLUDE\TYPE_TRAITS
C:\PROGRAM FILES (X86)\MICROSOFT VISUAL STUDIO\2017\COMMUNITY\VC\TOOLS\MSVC\14.16.27023\INCLUDE\XSTDDEF
C:\PROGRAM FILES (X86)\MICROSOFT VISUAL STUDIO\2017\COMMUNITY\VC\TOOLS\MSVC\14.16.27023\INCLUDE\CSTDDEF
C:\PROGRAM FILES (X86)\MICROSOFT VISUAL STUDIO\2017\COMMUNITY\VC\TOOLS\MSVC\14.16.27023\INCLUDE\INITIALIZER_LIST
C:\PROGRAM FILES (X86)\WINDOWS KITS\10\INCLUDE\10.0.17763.0\UCRT\MALLOC.H
C:\PROGRAM FILES (X86)\MICROSOFT VISUAL STUDIO\2017\COMMUNITY\VC\TOOLS\MSVC\14.16.27023\INCLUDE\VCRUNTIME_EXCEPTION.H
C:\PROGRAM FILES (X86)\MICROSOFT VISUAL STUDIO\2017\COMMUNITY\VC\TOOLS\MSVC\14.16.27023\INCLUDE\EH.H
C:\PROGRAM FILES (X86)\WINDOWS KITS\10\INCLUDE\10.0.17763.0\UCRT\CORECRT_TERMINATE.H
C:\PROGRAM FILES (X86)\MICROSOFT VISUAL STUDIO\2017\COMMUNITY\VC\TOOLS\MSVC\14.16.27023\INCLUDE\XSTRING
C:\PROGRAM FILES (X86)\MICROSOFT VISUAL STUDIO\2017\COMMUNITY\VC\TOOLS\MSVC\14.16.27023\INCLUDE\XMEMORY0
C:\PROGRAM FILES (X86)\MICROSOFT VISUAL STUDIO\2017\COMMUNITY\VC\TOOLS\MSVC\14.16.27023\INCLUDE\CSTDINT
C:\PROGRAM FILES (X86)\MICROSOFT VISUAL STUDIO\2017\COMMUNITY\VC\TOOLS\MSVC\14.16.27023\INCLUDE\STDINT.H
C:\PROGRAM FILES (X86)\MICROSOFT VISUAL STUDIO\2017\COMMUNITY\VC\TOOLS\MSVC\14.16.27023\INCLUDE\LIMITS
C:\PROGRAM FILES (X86)\MICROSOFT VISUAL STUDIO\2017\COMMUNITY\VC\TOOLS\MSVC\14.16.27023\INCLUDE\YMATH.H
C:\PROGRAM FILES (X86)\MICROSOFT VISUAL STUDIO\2017\COMMUNITY\VC\TOOLS\MSVC\14.16.27023\INCLUDE\CFLOAT
C:\PROGRAM FILES (X86)\WINDOWS KITS\10\INCLUDE\10.0.17763.0\UCRT\FLOAT.H
C:\PROGRAM FILES (X86)\MICROSOFT VISUAL STUDIO\2017\COMMUNITY\VC\TOOLS\MSVC\14.16.27023\INCLUDE\CWCHAR
C:\PROGRAM FILES (X86)\WINDOWS KITS\10\INCLUDE\10.0.17763.0\UCRT\WCHAR.H
C:\PROGRAM FILES (X86)\WINDOWS KITS\10\INCLUDE\10.0.17763.0\UCRT\CORECRT_WCONIO.H
C:\PROGRAM FILES (X86)\WINDOWS KITS\10\INCLUDE\10.0.17763.0\UCRT\CORECRT_WCTYPE.H
C:\PROGRAM FILES (X86)\WINDOWS KITS\10\INCLUDE\10.0.17763.0\UCRT\CORECRT_WDIRECT.H
C:\PROGRAM FILES (X86)\WINDOWS KITS\10\INCLUDE\10.0.17763.0\UCRT\CORECRT_WIO.H
C:\PROGRAM FILES (X86)\WINDOWS KITS\10\INCLUDE\10.0.17763.0\UCRT\CORECRT_SHARE.H
C:\PROGRAM FILES (X86)\WINDOWS KITS\10\INCLUDE\10.0.17763.0\UCRT\CORECRT_WPROCESS.H
C:\PROGRAM FILES (X86)\WINDOWS KITS\10\INCLUDE\10.0.17763.0\UCRT\CORECRT_WTIME.H
C:\PROGRAM FILES (X86)\WINDOWS KITS\10\INCLUDE\10.0.17763.0\UCRT\SYS\STAT.H
C:\PROGRAM FILES (X86)\WINDOWS KITS\10\INCLUDE\10.0.17763.0\UCRT\SYS\TYPES.H
C:\PROGRAM FILES (X86)\MICROSOFT VISUAL STUDIO\2017\COMMUNITY\VC\TOOLS\MSVC\14.16.27023\INCLUDE\NEW
C:\PROGRAM FILES (X86)\MICROSOFT VISUAL STUDIO\2017\COMMUNITY\VC\TOOLS\MSVC\14.16.27023\INCLUDE\XUTILITY
C:\PROGRAM FILES (X86)\MICROSOFT VISUAL STUDIO\2017\COMMUNITY\VC\TOOLS\MSVC\14.16.27023\INCLUDE\UTILITY
C:\PROGRAM FILES (X86)\MICROSOFT VISUAL STUDIO\2017\COMMUNITY\VC\TOOLS\MSVC\14.16.27023\INCLUDE\IOSFWD
C:\PROGRAM FILES (X86)\MICROSOFT VISUAL STUDIO\2017\COMMUNITY\VC\TOOLS\MSVC\14.16.27023\INCLUDE\XATOMIC0.H
C:\PROGRAM FILES (X86)\MICROSOFT VISUAL STUDIO\2017\COMMUNITY\VC\TOOLS\MSVC\14.16.27023\INCLUDE\INTRIN0.H
C:\PROGRAM FILES (X86)\MICROSOFT VISUAL STUDIO\2017\COMMUNITY\VC\TOOLS\MSVC\14.16.27023\INCLUDE\TYPEINFO
C:\PROGRAM FILES (X86)\MICROSOFT VISUAL STUDIO\2017\COMMUNITY\VC\TOOLS\MSVC\14.16.27023\INCLUDE\VCRUNTIME_TYPEINFO.H
C:\PROGRAM FILES (X86)\MICROSOFT VISUAL STUDIO\2017\COMMUNITY\VC\TOOLS\MSVC\14.16.27023\INCLUDE\XLOCINFO
C:\PROGRAM FILES (X86)\MICROSOFT VISUAL STUDIO\2017\COMMUNITY\VC\TOOLS\MSVC\14.16.27023\INCLUDE\XLOCINFO.H
C:\PROGRAM FILES (X86)\WINDOWS KITS\10\INCLUDE\10.0.17763.0\UCRT\CTYPE.H
C:\PROGRAM FILES (X86)\WINDOWS KITS\10\INCLUDE\10.0.17763.0\UCRT\LOCALE.H
C:\PROGRAM FILES (X86)\MICROSOFT VISUAL STUDIO\2017\COMMUNITY\VC\TOOLS\MSVC\14.16.27023\INCLUDE\MEMORY
C:\PROGRAM FILES (X86)\MICROSOFT VISUAL STUDIO\2017\COMMUNITY\VC\TOOLS\MSVC\14.16.27023\INCLUDE\XMEMORY
C:\PROGRAM FILES (X86)\MICROSOFT VISUAL STUDIO\2017\COMMUNITY\VC\TOOLS\MSVC\14.16.27023\INCLUDE\XFACET
C:\PROGRAM FILES (X86)\MICROSOFT VISUAL STUDIO\2017\COMMUNITY\VC\TOOLS\MSVC\14.16.27023\INCLUDE\SYSTEM_ERROR
C:\PROGRAM FILES (X86)\MICROSOFT VISUAL STUDIO\2017\COMMUNITY\VC\TOOLS\MSVC\14.16.27023\INCLUDE\CERRNO
C:\PROGRAM FILES (X86)\MICROSOFT VISUAL STUDIO\2017\COMMUNITY\VC\TOOLS\MSVC\14.16.27023\INCLUDE\XCALL_ONCE.H
C:\PROGRAM FILES (X86)\MICROSOFT VISUAL STUDIO\2017\COMMUNITY\VC\TOOLS\MSVC\14.16.27023\INCLUDE\XERRC.H
C:\PROGRAM FILES (X86)\WINDOWS KITS\10\INCLUDE\10.0.17763.0\UCRT\SHARE.H
C:\PROGRAM FILES (X86)\MICROSOFT VISUAL STUDIO\2017\COMMUNITY\VC\TOOLS\MSVC\14.16.27023\INCLUDE\STRING
C:\PROGRAM FILES (X86)\MICROSOFT VISUAL STUDIO\2017\COMMUNITY\VC\TOOLS\MSVC\14.16.27023\INCLUDE\XSTRING_INSERT.H
C:\PROGRAM FILES (X86)\MICROSOFT VISUAL STUDIO\2017\COMMUNITY\VC\TOOLS\MSVC\14.16.27023\INCLUDE\ALGORITHM
C:\PROGRAM FILES (X86)\WINDOWS KITS\10\INCLUDE\10.0.17763.0\UCRT\TIME.H
C:\PROGRAM FILES (X86)\MICROSOFT VISUAL STUDIO\2017\COMMUNITY\VC\TOOLS\MSVC\14.16.27023\INCLUDE\CASSERT
C:\PROGRAM FILES (X86)\WINDOWS KITS\10\INCLUDE\10.0.17763.0\UCRT\ASSERT.H
C:\PROGRAM FILES (X86)\MICROSOFT VISUAL STUDIO\2017\COMMUNITY\VC\TOOLS\MSVC\14.16.27023\INCLUDE\NUMERIC
C:\PROGRAM FILES (X86)\MICROSOFT VISUAL STUDIO\2017\COMMUNITY\VC\TOOLS\MSVC\14.16.27023\INCLUDE\SET
C:\PROGRAM FILES (X86)\MICROSOFT VISUAL STUDIO\2017\COMMUNITY\VC\TOOLS\MSVC\14.16.27023\INCLUDE\XTREE
C:\PROGRAM FILES (X86)\MICROSOFT VISUAL STUDIO\2017\COMMUNITY\VC\TOOLS\MSVC\14.16.27023\INCLUDE\UNORDERED_SET
C:\PROGRAM FILES (X86)\MICROSOFT VISUAL STUDIO\2017\COMMUNITY\VC\TOOLS\MSVC\14.16.27023\INCLUDE\XHASH
C:\PROGRAM FILES (X86)\MICROSOFT VISUAL STUDIO\2017\COMMUNITY\VC\TOOLS\MSVC\14.16.27023\INCLUDE\LIST
C:\PROGRAM FILES (X86)\MICROSOFT VISUAL STUDIO\2017\COMMUNITY\VC\TOOLS\MSVC\14.16.27023\INCLUDE\VECTOR
C:\PROGRAM FILES (X86)\MICROSOFT VISUAL STUDIO\2017\COMMUNITY\VC\TOOLS\MSVC\14.16.27023\INCLUDE\MAP
C:\PROGRAM FILES (X86)\MICROSOFT VISUAL STUDIO\2017\COMMUNITY\VC\TOOLS\MSVC\14.16.27023\INCLUDE\TUPLE
C:\PROGRAM FILES (X86)\MICROSOFT VISUAL STUDIO\2017\COMMUNITY\VC\TOOLS\MSVC\14.16.27023\INCLUDE\SSTREAM
D:\APPLICATIONS\BOOST_1_69_0\BOOST\RANDOM\MERSENNE_TWISTER.HPP
D:\APPLICATIONS\BOOST_1_69_0\BOOST\CONFIG.HPP
D:\APPLICATIONS\BOOST_1_69_0\BOOST\CONFIG\USER.HPP
D:\APPLICATIONS\BOOST_1_69_0\BOOST\CONFIG\DETAIL\SELECT_COMPILER_CONFIG.HPP
D:\APPLICATIONS\BOOST_1_69_0\BOOST\CONFIG\COMPILER\VISUALC.HPP
D:\APPLICATIONS\BOOST_1_69_0\BOOST\CONFIG\PRAGMA_MESSAGE.HPP
D:\APPLICATIONS\BOOST_1_69_0\BOOST\CONFIG\HELPER_MACROS.HPP
D:\APPLICATIONS\BOOST_1_69_0\BOOST\CONFIG\DETAIL\SELECT_STDLIB_CONFIG.HPP
D:\APPLICATIONS\BOOST_1_69_0\BOOST\CONFIG\STDLIB\DINKUMWARE.HPP
D:\APPLICATIONS\BOOST_1_69_0\BOOST\CONFIG\DETAIL\SELECT_PLATFORM_CONFIG.HPP
D:\APPLICATIONS\BOOST_1_69_0\BOOST\CONFIG\PLATFORM\WIN32.HPP
D:\APPLICATIONS\BOOST_1_69_0\BOOST\CONFIG\DETAIL\SUFFIX.HPP
D:\APPLICATIONS\BOOST_1_69_0\BOOST\CSTDINT.HPP
D:\APPLICATIONS\BOOST_1_69_0\BOOST\INTEGER\INTEGER_MASK.HPP
D:\APPLICATIONS\BOOST_1_69_0\BOOST\INTEGER_FWD.HPP
D:\APPLICATIONS\BOOST_1_69_0\BOOST\LIMITS.HPP
D:\APPLICATIONS\BOOST_1_69_0\BOOST\INTEGER.HPP
D:\APPLICATIONS\BOOST_1_69_0\BOOST\INTEGER_TRAITS.HPP
D:\APPLICATIONS\BOOST_1_69_0\BOOST\STATIC_ASSERT.HPP
D:\APPLICATIONS\BOOST_1_69_0\BOOST\DETAIL\WORKAROUND.HPP
D:\APPLICATIONS\BOOST_1_69_0\BOOST\CONFIG\WORKAROUND.HPP
D:\APPLICATIONS\BOOST_1_69_0\BOOST\RANDOM\DETAIL\CONFIG.HPP
D:\APPLICATIONS\BOOST_1_69_0\BOOST\RANDOM\DETAIL\PTR_HELPER.HPP
D:\APPLICATIONS\BOOST_1_69_0\BOOST\RANDOM\DETAIL\SEED.HPP
D:\APPLICATIONS\BOOST_1_69_0\BOOST\UTILITY\ENABLE_IF.HPP
D:\APPLICATIONS\BOOST_1_69_0\BOOST\CORE\ENABLE_IF.HPP
D:\APPLICATIONS\BOOST_1_69_0\BOOST\TYPE_TRAITS\IS_ARITHMETIC.HPP
D:\APPLICATIONS\BOOST_1_69_0\BOOST\TYPE_TRAITS\IS_INTEGRAL.HPP
D:\APPLICATIONS\BOOST_1_69_0\BOOST\TYPE_TRAITS\INTEGRAL_CONSTANT.HPP
D:\APPLICATIONS\BOOST_1_69_0\BOOST\TYPE_TRAITS\IS_FLOATING_POINT.HPP
D:\APPLICATIONS\BOOST_1_69_0\BOOST\MPL\BOOL.HPP
D:\APPLICATIONS\BOOST_1_69_0\BOOST\MPL\BOOL_FWD.HPP
D:\APPLICATIONS\BOOST_1_69_0\BOOST\MPL\AUX_\ADL_BARRIER.HPP
D:\APPLICATIONS\BOOST_1_69_0\BOOST\MPL\AUX_\CONFIG\ADL.HPP
D:\APPLICATIONS\BOOST_1_69_0\BOOST\MPL\AUX_\CONFIG\MSVC.HPP
D:\APPLICATIONS\BOOST_1_69_0\BOOST\MPL\AUX_\CONFIG\INTEL.HPP
D:\APPLICATIONS\BOOST_1_69_0\BOOST\MPL\AUX_\CONFIG\GCC.HPP
D:\APPLICATIONS\BOOST_1_69_0\BOOST\MPL\AUX_\CONFIG\WORKAROUND.HPP
D:\APPLICATIONS\BOOST_1_69_0\BOOST\MPL\INTEGRAL_C_TAG.HPP
D:\APPLICATIONS\BOOST_1_69_0\BOOST\MPL\AUX_\CONFIG\STATIC_CONSTANT.HPP
D:\APPLICATIONS\BOOST_1_69_0\BOOST\RANDOM\DETAIL\SEED_IMPL.HPP
D:\APPLICATIONS\BOOST_1_69_0\BOOST\THROW_EXCEPTION.HPP
D:\APPLICATIONS\BOOST_1_69_0\BOOST\EXCEPTION\EXCEPTION.HPP
D:\APPLICATIONS\BOOST_1_69_0\BOOST\CURRENT_FUNCTION.HPP
D:\APPLICATIONS\BOOST_1_69_0\BOOST\CONFIG\NO_TR1\CMATH.HPP
D:\APPLICATIONS\BOOST_1_69_0\BOOST\INTEGER\STATIC_LOG2.HPP
D:\APPLICATIONS\BOOST_1_69_0\BOOST\RANDOM\TRAITS.HPP
D:\APPLICATIONS\BOOST_1_69_0\BOOST\TYPE_TRAITS\IS_SIGNED.HPP
D:\APPLICATIONS\BOOST_1_69_0\BOOST\TYPE_TRAITS\REMOVE_CV.HPP
D:\APPLICATIONS\BOOST_1_69_0\BOOST\TYPE_TRAITS\IS_ENUM.HPP
D:\APPLICATIONS\BOOST_1_69_0\BOOST\TYPE_TRAITS\INTRINSICS.HPP
D:\APPLICATIONS\BOOST_1_69_0\BOOST\TYPE_TRAITS\DETAIL\CONFIG.HPP
D:\APPLICATIONS\BOOST_1_69_0\BOOST\VERSION.HPP
D:\APPLICATIONS\BOOST_1_69_0\BOOST\TYPE_TRAITS\MAKE_UNSIGNED.HPP
D:\APPLICATIONS\BOOST_1_69_0\BOOST\TYPE_TRAITS\CONDITIONAL.HPP
D:\APPLICATIONS\BOOST_1_69_0\BOOST\TYPE_TRAITS\IS_UNSIGNED.HPP
D:\APPLICATIONS\BOOST_1_69_0\BOOST\TYPE_TRAITS\IS_SAME.HPP
D:\APPLICATIONS\BOOST_1_69_0\BOOST\TYPE_TRAITS\IS_CONST.HPP
D:\APPLICATIONS\BOOST_1_69_0\BOOST\TYPE_TRAITS\IS_VOLATILE.HPP
D:\APPLICATIONS\BOOST_1_69_0\BOOST\TYPE_TRAITS\ADD_CONST.HPP
D:\APPLICATIONS\BOOST_1_69_0\BOOST\TYPE_TRAITS\ADD_VOLATILE.HPP
D:\APPLICATIONS\BOOST_1_69_0\BOOST\MPL\IF.HPP
D:\APPLICATIONS\BOOST_1_69_0\BOOST\MPL\AUX_\VALUE_WKND.HPP
D:\APPLICATIONS\BOOST_1_69_0\BOOST\MPL\AUX_\STATIC_CAST.HPP
D:\APPLICATIONS\BOOST_1_69_0\BOOST\MPL\AUX_\CONFIG\INTEGRAL.HPP
D:\APPLICATIONS\BOOST_1_69_0\BOOST\MPL\AUX_\CONFIG\ETI.HPP
D:\APPLICATIONS\BOOST_1_69_0\BOOST\MPL\AUX_\NA_SPEC.HPP
D:\APPLICATIONS\BOOST_1_69_0\BOOST\MPL\LAMBDA_FWD.HPP
D:\APPLICATIONS\BOOST_1_69_0\BOOST\MPL\VOID_FWD.HPP
D:\APPLICATIONS\BOOST_1_69_0\BOOST\MPL\AUX_\NA.HPP
D:\APPLICATIONS\BOOST_1_69_0\BOOST\MPL\AUX_\NA_FWD.HPP
D:\APPLICATIONS\BOOST_1_69_0\BOOST\MPL\AUX_\CONFIG\CTPS.HPP
D:\APPLICATIONS\BOOST_1_69_0\BOOST\MPL\AUX_\CONFIG\LAMBDA.HPP
D:\APPLICATIONS\BOOST_1_69_0\BOOST\MPL\AUX_\CONFIG\TTP.HPP
D:\APPLICATIONS\BOOST_1_69_0\BOOST\MPL\INT.HPP
D:\APPLICATIONS\BOOST_1_69_0\BOOST\MPL\INT_FWD.HPP
D:\APPLICATIONS\BOOST_1_69_0\BOOST\MPL\AUX_\NTTP_DECL.HPP
D:\APPLICATIONS\BOOST_1_69_0\BOOST\MPL\AUX_\CONFIG\NTTP.HPP
D:\APPLICATIONS\BOOST_1_69_0\BOOST\MPL\AUX_\INTEGRAL_WRAPPER.HPP
D:\APPLICATIONS\BOOST_1_69_0\BOOST\PREPROCESSOR\CAT.HPP
D:\APPLICATIONS\BOOST_1_69_0\BOOST\PREPROCESSOR\CONFIG\CONFIG.HPP
D:\APPLICATIONS\BOOST_1_69_0\BOOST\MPL\AUX_\LAMBDA_ARITY_PARAM.HPP
D:\APPLICATIONS\BOOST_1_69_0\BOOST\MPL\AUX_\TEMPLATE_ARITY_FWD.HPP
D:\APPLICATIONS\BOOST_1_69_0\BOOST\MPL\AUX_\ARITY.HPP
D:\APPLICATIONS\BOOST_1_69_0\BOOST\MPL\AUX_\CONFIG\DTP.HPP
D:\APPLICATIONS\BOOST_1_69_0\BOOST\MPL\AUX_\PREPROCESSOR\PARAMS.HPP
D:\APPLICATIONS\BOOST_1_69_0\BOOST\MPL\AUX_\CONFIG\PREPROCESSOR.HPP
D:\APPLICATIONS\BOOST_1_69_0\BOOST\PREPROCESSOR\COMMA_IF.HPP
D:\APPLICATIONS\BOOST_1_69_0\BOOST\PREPROCESSOR\PUNCTUATION\COMMA_IF.HPP
D:\APPLICATIONS\BOOST_1_69_0\BOOST\PREPROCESSOR\CONTROL\IF.HPP
D:\APPLICATIONS\BOOST_1_69_0\BOOST\PREPROCESSOR\CONTROL\IIF.HPP
D:\APPLICATIONS\BOOST_1_69_0\BOOST\PREPROCESSOR\LOGICAL\BOOL.HPP
D:\APPLICATIONS\BOOST_1_69_0\BOOST\PREPROCESSOR\FACILITIES\EMPTY.HPP
D:\APPLICATIONS\BOOST_1_69_0\BOOST\PREPROCESSOR\PUNCTUATION\COMMA.HPP
D:\APPLICATIONS\BOOST_1_69_0\BOOST\PREPROCESSOR\REPEAT.HPP
D:\APPLICATIONS\BOOST_1_69_0\BOOST\PREPROCESSOR\REPETITION\REPEAT.HPP
D:\APPLICATIONS\BOOST_1_69_0\BOOST\PREPROCESSOR\DEBUG\ERROR.HPP
D:\APPLICATIONS\BOOST_1_69_0\BOOST\PREPROCESSOR\DETAIL\AUTO_REC.HPP
D:\APPLICATIONS\BOOST_1_69_0\BOOST\PREPROCESSOR\TUPLE\EAT.HPP
D:\APPLICATIONS\BOOST_1_69_0\BOOST\PREPROCESSOR\INC.HPP
D:\APPLICATIONS\BOOST_1_69_0\BOOST\PREPROCESSOR\ARITHMETIC\INC.HPP
D:\APPLICATIONS\BOOST_1_69_0\BOOST\MPL\AUX_\PREPROCESSOR\ENUM.HPP
D:\APPLICATIONS\BOOST_1_69_0\BOOST\MPL\AUX_\PREPROCESSOR\DEF_PARAMS_TAIL.HPP
D:\APPLICATIONS\BOOST_1_69_0\BOOST\MPL\LIMITS\ARITY.HPP
D:\APPLICATIONS\BOOST_1_69_0\BOOST\PREPROCESSOR\LOGICAL\AND.HPP
D:\APPLICATIONS\BOOST_1_69_0\BOOST\PREPROCESSOR\LOGICAL\BITAND.HPP
D:\APPLICATIONS\BOOST_1_69_0\BOOST\PREPROCESSOR\IDENTITY.HPP
D:\APPLICATIONS\BOOST_1_69_0\BOOST\PREPROCESSOR\FACILITIES\IDENTITY.HPP
D:\APPLICATIONS\BOOST_1_69_0\BOOST\PREPROCESSOR\EMPTY.HPP
D:\APPLICATIONS\BOOST_1_69_0\BOOST\PREPROCESSOR\ARITHMETIC\ADD.HPP
D:\APPLICATIONS\BOOST_1_69_0\BOOST\PREPROCESSOR\ARITHMETIC\DEC.HPP
D:\APPLICATIONS\BOOST_1_69_0\BOOST\PREPROCESSOR\CONTROL\WHILE.HPP
D:\APPLICATIONS\BOOST_1_69_0\BOOST\PREPROCESSOR\LIST\FOLD_LEFT.HPP
D:\APPLICATIONS\BOOST_1_69_0\BOOST\PREPROCESSOR\LIST\DETAIL\FOLD_LEFT.HPP
D:\APPLICATIONS\BOOST_1_69_0\BOOST\PREPROCESSOR\CONTROL\EXPR_IIF.HPP
D:\APPLICATIONS\BOOST_1_69_0\BOOST\PREPROCESSOR\LIST\ADT.HPP
D:\APPLICATIONS\BOOST_1_69_0\BOOST\PREPROCESSOR\DETAIL\IS_BINARY.HPP
D:\APPLICATIONS\BOOST_1_69_0\BOOST\PREPROCESSOR\DETAIL\CHECK.HPP
D:\APPLICATIONS\BOOST_1_69_0\BOOST\PREPROCESSOR\LOGICAL\COMPL.HPP
D:\APPLICATIONS\BOOST_1_69_0\BOOST\PREPROCESSOR\LIST\FOLD_RIGHT.HPP
D:\APPLICATIONS\BOOST_1_69_0\BOOST\PREPROCESSOR\LIST\DETAIL\FOLD_RIGHT.HPP
D:\APPLICATIONS\BOOST_1_69_0\BOOST\PREPROCESSOR\LIST\REVERSE.HPP
D:\APPLICATIONS\BOOST_1_69_0\BOOST\PREPROCESSOR\CONTROL\DETAIL\MSVC\WHILE.HPP
D:\APPLICATIONS\BOOST_1_69_0\BOOST\PREPROCESSOR\TUPLE\ELEM.HPP
D:\APPLICATIONS\BOOST_1_69_0\BOOST\PREPROCESSOR\FACILITIES\EXPAND.HPP
D:\APPLICATIONS\BOOST_1_69_0\BOOST\PREPROCESSOR\FACILITIES\OVERLOAD.HPP
D:\APPLICATIONS\BOOST_1_69_0\BOOST\PREPROCESSOR\VARIADIC\SIZE.HPP
D:\APPLICATIONS\BOOST_1_69_0\BOOST\PREPROCESSOR\TUPLE\REM.HPP
D:\APPLICATIONS\BOOST_1_69_0\BOOST\PREPROCESSOR\TUPLE\DETAIL\IS_SINGLE_RETURN.HPP
D:\APPLICATIONS\BOOST_1_69_0\BOOST\PREPROCESSOR\FACILITIES\IS_1.HPP
D:\APPLICATIONS\BOOST_1_69_0\BOOST\PREPROCESSOR\FACILITIES\IS_EMPTY.HPP
D:\APPLICATIONS\BOOST_1_69_0\BOOST\PREPROCESSOR\FACILITIES\IS_EMPTY_VARIADIC.HPP
D:\APPLICATIONS\BOOST_1_69_0\BOOST\PREPROCESSOR\PUNCTUATION\IS_BEGIN_PARENS.HPP
D:\APPLICATIONS\BOOST_1_69_0\BOOST\PREPROCESSOR\PUNCTUATION\DETAIL\IS_BEGIN_PARENS.HPP
D:\APPLICATIONS\BOOST_1_69_0\BOOST\PREPROCESSOR\FACILITIES\DETAIL\IS_EMPTY.HPP
D:\APPLICATIONS\BOOST_1_69_0\BOOST\PREPROCESSOR\TUPLE\SIZE.HPP
D:\APPLICATIONS\BOOST_1_69_0\BOOST\PREPROCESSOR\VARIADIC\ELEM.HPP
D:\APPLICATIONS\BOOST_1_69_0\BOOST\PREPROCESSOR\ARITHMETIC\SUB.HPP
D:\APPLICATIONS\BOOST_1_69_0\BOOST\MPL\AUX_\CONFIG\OVERLOAD_RESOLUTION.HPP
D:\APPLICATIONS\BOOST_1_69_0\BOOST\MPL\AUX_\LAMBDA_SUPPORT.HPP
D:\APPLICATIONS\BOOST_1_69_0\BOOST\RANDOM\DETAIL\CONST_MOD.HPP
D:\APPLICATIONS\BOOST_1_69_0\BOOST\ASSERT.HPP
D:\APPLICATIONS\BOOST_1_69_0\BOOST\RANDOM\DETAIL\LARGE_ARITHMETIC.HPP
D:\APPLICATIONS\BOOST_1_69_0\BOOST\RANDOM\DETAIL\INTEGER_LOG2.HPP
D:\APPLICATIONS\BOOST_1_69_0\BOOST\PENDING\INTEGER_LOG2.HPP
D:\APPLICATIONS\BOOST_1_69_0\BOOST\INTEGER\INTEGER_LOG2.HPP
D:\APPLICATIONS\BOOST_1_69_0\BOOST\CONFIG\HEADER_DEPRECATED.HPP
D:\APPLICATIONS\BOOST_1_69_0\BOOST\RANDOM\DETAIL\DISABLE_WARNINGS.HPP
D:\APPLICATIONS\BOOST_1_69_0\BOOST\RANDOM\DETAIL\ENABLE_WARNINGS.HPP
D:\APPLICATIONS\BOOST_1_69_0\BOOST\RANDOM\DETAIL\SIGNED_UNSIGNED_TOOLS.HPP
D:\APPLICATIONS\BOOST_1_69_0\BOOST\RANDOM\DETAIL\GENERATOR_BITS.HPP
D:\APPLICATIONS\BOOST_1_69_0\BOOST\RANDOM\DETAIL\GENERATOR_SEED_SEQ.HPP
D:\APPLICATIONS\BOOST_1_69_0\BOOST\RANDOM\DETAIL\POLYNOMIAL.HPP
D:\APPLICATIONS\BOOST_1_69_0\BOOST\RANDOM\UNIFORM_INT_DISTRIBUTION.HPP
D:\APPLICATIONS\BOOST_1_69_0\BOOST\RANDOM\DETAIL\OPERATORS.HPP
D:\APPLICATIONS\BOOST_1_69_0\BOOST\RANDOM\DETAIL\UNIFORM_INT_FLOAT.HPP
D:\APPLICATIONS\BOOST_1_69_0\BOOST\RANDOM\UNIFORM_REAL_DISTRIBUTION.HPP
D:\APPLICATIONS\BOOST_1_69_0\BOOST\RANDOM\RANDOM_DEVICE.HPP
D:\APPLICATIONS\BOOST_1_69_0\BOOST\NONCOPYABLE.HPP
D:\APPLICATIONS\BOOST_1_69_0\BOOST\CORE\NONCOPYABLE.HPP
D:\APPLICATIONS\BOOST_1_69_0\BOOST\RANDOM\DETAIL\AUTO_LINK.HPP
D:\APPLICATIONS\BOOST_1_69_0\BOOST\CONFIG\AUTO_LINK.HPP
D:\APPLICATIONS\BOOST_1_69_0\BOOST\SYSTEM\CONFIG.HPP
D:\APPLICATIONS\BOOST_1_69_0\BOOST\SYSTEM\API_CONFIG.HPP
