^D:\DROPBOX\UNI\MASTERS\PROJECT\MRES_CODE\PAPER_CODE\BUTTERFLY-COUNTING\BFC.CPP
C:\USERS\PATRI\SOURCE\REPOS\PROJECT1\PROJECT1\RELEASE\VC141.PDB
C:\USERS\PATRI\SOURCE\REPOS\PROJECT1\PROJECT1\RELEASE\BFC.OBJ
