^C:\USERS\PATRI\SOURCE\REPOS\PROJECT1\PROJECT1\RELEASE\BFC.OBJ
/OUT:"C:\USERS\PATRI\SOURCE\REPOS\PROJECT1\RELEASE\PROJECT1.EXE" /NOLOGO /LIBPATH:D:\APPLICATIONS\BOOST_1_69_0\STAGE\LIB KERNEL32.LIB USER32.LIB GDI32.LIB WINSPOOL.LIB COMDLG32.LIB ADVAPI32.LIB SHELL32.LIB OLE32.LIB OLEAUT32.LIB UUID.LIB ODBC32.LIB ODBCCP32.LIB /MANIFEST /MANIFESTUAC:"level='asInvoker' uiAccess='false'" /manifest:embed /DEBUG:FULL /PDB:"C:\USERS\PATRI\SOURCE\REPOS\PROJECT1\RELEASE\PROJECT1.PDB" /OPT:REF /OPT:ICF /LTCG:incremental /TLBID:1 /DYNAMICBASE /NXCOMPAT /IMPLIB:"C:\USERS\PATRI\SOURCE\REPOS\PROJECT1\RELEASE\PROJECT1.LIB" /MACHINE:X86 /SAFESEH RELEASE\BFC.OBJ
^D:\DROPBOX\UNI\MASTERS\PROJECT\MRES_CODE\PAPER_CODE\PROJECT1\PROJECT1\RELEASE\BFC.OBJ
/OUT:"D:\DROPBOX\UNI\MASTERS\PROJECT\MRES_CODE\PAPER_CODE\PROJECT1\RELEASE\PROJECT1.EXE" /NOLOGO /LIBPATH:D:\APPLICATIONS\BOOST_1_69_0\STAGE\LIB KERNEL32.LIB USER32.LIB GDI32.LIB WINSPOOL.LIB COMDLG32.LIB ADVAPI32.LIB SHELL32.LIB OLE32.LIB OLEAUT32.LIB UUID.LIB ODBC32.LIB ODBCCP32.LIB /MANIFEST /MANIFESTUAC:"level='asInvoker' uiAccess='false'" /manifest:embed /DEBUG:FULL /PDB:"D:\DROPBOX\UNI\MASTERS\PROJECT\MRES_CODE\PAPER_CODE\PROJECT1\RELEASE\PROJECT1.PDB" /OPT:REF /OPT:ICF /LTCG:incremental /TLBID:1 /DYNAMICBASE /NXCOMPAT /IMPLIB:"D:\DROPBOX\UNI\MASTERS\PROJECT\MRES_CODE\PAPER_CODE\PROJECT1\RELEASE\PROJECT1.LIB" /MACHINE:X86 /SAFESEH RELEASE\BFC.OBJ
